<?xml version="1.0" encoding="UTF-8" standalone="no"?>
<!-- Generator: Adobe Illustrator 19.0.0, SVG Export Plug-In . SVG Version: 6.00 Build 0)  -->

<svg:svg
   xmlns:dc="http://purl.org/dc/elements/1.1/"
   xmlns:cc="http://creativecommons.org/ns#"
   xmlns:rdf="http://www.w3.org/1999/02/22-rdf-syntax-ns#"
   xmlns:svg="http://www.w3.org/2000/svg"
   xmlns:sodipodi="http://sodipodi.sourceforge.net/DTD/sodipodi-0.dtd"
   xmlns:inkscape="http://www.inkscape.org/namespaces/inkscape"
   version="1.1"
   id="Layer_1"
   x="0px"
   y="0px"
   viewBox="0 0 511.99999 511.99999"
   xml:space="preserve"
   sodipodi:docname="arcade.svg"
   width="512"
   height="512"
   inkscape:version="0.92.4 (5da689c313, 2019-01-14)"><svg:metadata
   id="metadata69"><rdf:RDF><cc:Work
       rdf:about=""><dc:format>image/svg+xml</dc:format><dc:type
         rdf:resource="http://purl.org/dc/dcmitype/StillImage" /><dc:title></dc:title></cc:Work></rdf:RDF></svg:metadata><svg:defs
   id="defs67">
	
</svg:defs><sodipodi:namedview
   pagecolor="#ffffff"
   bordercolor="#666666"
   borderopacity="1"
   objecttolerance="10"
   gridtolerance="10"
   guidetolerance="10"
   inkscape:pageopacity="0"
   inkscape:pageshadow="2"
   inkscape:window-width="1850"
   inkscape:window-height="1016"
   id="namedview65"
   showgrid="false"
   inkscape:snap-page="true"
   inkscape:zoom="0.79935508"
   inkscape:cx="20.64164"
   inkscape:cy="141.98947"
   inkscape:window-x="1990"
   inkscape:window-y="27"
   inkscape:window-maximized="1"
   inkscape:current-layer="Layer_1" />
<svg:g
   id="g30"
   transform="matrix(1.7341941,0,0,1.7341941,1.1521e-6,1.1521e-6)">
		<svg:g
   id="g28">
			<svg:path
   inkscape:connector-curvature="0"
   id="path2"
   d="M 223.81,179.586 V 72.205 l 9.524,-28.571 V 0 H 61.905 V 43.629 L 71.429,72.2 v 107.381 l -23.81,38.095 v 77.562 h 200 V 217.681 Z M 71.429,9.524 H 223.81 V 38.095 H 71.429 Z m 150.537,38.095 -6.352,19.048 H 79.624 L 73.276,47.619 Z M 80.952,182.319 V 76.19 h 133.333 v 106.129 l 19.981,31.967 H 60.971 Z M 238.095,285.714 H 57.143 v -23.81 h 180.952 z m 0,-33.333 H 57.143 V 223.81 h 180.952 z" />
			<svg:path
   inkscape:connector-curvature="0"
   id="path4"
   d="M 195.238,85.714 H 100 c -7.876,0 -14.286,6.41 -14.286,14.286 v 57.143 c 0,7.876 6.41,14.286 14.286,14.286 h 14.266 C 106.399,171.44 100,177.845 100,185.714 c 0,6.2 3.995,11.438 9.524,13.41 v 10.4 h 9.524 v -10.4 c 5.529,-1.971 9.524,-7.21 9.524,-13.41 0,-7.869 -6.399,-14.274 -14.266,-14.285 h 80.932 c 7.876,0 14.286,-6.41 14.286,-14.286 V 100 c 0,-7.876 -6.41,-14.286 -14.286,-14.286 z m -76.19,100 c 0,2.629 -2.138,4.762 -4.762,4.762 -2.624,0 -4.762,-2.133 -4.762,-4.762 0,-2.628 2.138,-4.762 4.762,-4.762 2.624,0 4.762,2.133 4.762,4.762 z M 200,157.143 c 0,2.629 -2.133,4.762 -4.762,4.762 H 100 c -2.629,0 -4.762,-2.133 -4.762,-4.762 V 100 c 0,-2.629 2.133,-4.762 4.762,-4.762 h 95.238 c 2.629,0 4.762,2.133 4.762,4.762 z" />
			<svg:circle
   id="circle6"
   r="4.7620001"
   cy="204.76199"
   cx="147.619" />
			<svg:circle
   id="circle8"
   r="4.7620001"
   cy="204.76199"
   cx="166.66701" />
			<svg:circle
   id="circle10"
   r="4.7620001"
   cy="204.76199"
   cx="185.714" />
			<svg:rect
   id="rect12"
   height="9.5240002"
   width="9.5240002"
   y="104.762"
   x="104.762" />
			<svg:rect
   id="rect14"
   height="9.5240002"
   width="9.5240002"
   y="104.762"
   x="123.81" />
			<svg:rect
   id="rect16"
   height="9.5240002"
   width="9.5240002"
   y="104.762"
   x="142.85699" />
			<svg:rect
   id="rect18"
   height="9.5240002"
   width="9.5240002"
   y="104.762"
   x="161.905" />
			<svg:rect
   id="rect20"
   height="9.5240002"
   width="9.5240002"
   y="104.762"
   x="180.952" />
			<svg:path
   inkscape:connector-curvature="0"
   id="path22"
   d="m 166.666,142.857 h -4.762 V 130.39 l -14.286,-7.143 -14.286,7.143 v 12.467 h -4.762 v -4.762 h -9.524 v 14.286 h 14.286 v 4.762 h 0.001 28.571 v -4.762 h 14.286 v -14.286 h -9.524 z m -14.285,4.762 h -9.524 v -11.343 l 4.762,-2.381 4.762,2.381 z" />
			<svg:rect
   id="rect24"
   height="9.5240002"
   width="9.5240002"
   y="123.81"
   x="119.048" />
			<svg:rect
   id="rect26"
   height="9.5240002"
   width="9.5240002"
   y="123.81"
   x="166.66701" />
		</svg:g>
	</svg:g>
<svg:g
   id="g34"
   transform="translate(0,216.76199)">
</svg:g>
<svg:g
   id="g36"
   transform="translate(0,216.76199)">
</svg:g>
<svg:g
   id="g38"
   transform="translate(0,216.76199)">
</svg:g>
<svg:g
   id="g40"
   transform="translate(0,216.76199)">
</svg:g>
<svg:g
   id="g42"
   transform="translate(0,216.76199)">
</svg:g>
<svg:g
   id="g44"
   transform="translate(0,216.76199)">
</svg:g>
<svg:g
   id="g46"
   transform="translate(0,216.76199)">
</svg:g>
<svg:g
   id="g48"
   transform="translate(0,216.76199)">
</svg:g>
<svg:g
   id="g50"
   transform="translate(0,216.76199)">
</svg:g>
<svg:g
   id="g52"
   transform="translate(0,216.76199)">
</svg:g>
<svg:g
   id="g54"
   transform="translate(0,216.76199)">
</svg:g>
<svg:g
   id="g56"
   transform="translate(0,216.76199)">
</svg:g>
<svg:g
   id="g58"
   transform="translate(0,216.76199)">
</svg:g>
<svg:g
   id="g60"
   transform="translate(0,216.76199)">
</svg:g>
<svg:g
   id="g62"
   transform="translate(0,216.76199)">
</svg:g>
<script /></svg:svg>